{
	"name": "Islamiqa Custom Pages",
	"description": "Allow create custom pages in islamiqa theme",
	"version": "1.0",
	"date": "10-05-2016",
	"author": "islamiqa",
	"author_uri": "",
	"license": "GPLv2"
}

