<?xml version="1.0" encoding="utf-8"?>
<!-- Generator: Adobe Illustrator 19.0.0, SVG Export Plug-In . SVG Version: 6.00 Build 0)  -->
<svg version="1.1" id="Layer_1" xmlns="http://www.w3.org/2000/svg" xmlns:xlink="http://www.w3.org/1999/xlink" x="0px" y="0px"
	 viewBox="0 0 12 9" style="enable-background:new 0 0 12 9;" xml:space="preserve">
<path id="XMLID_2_" d="M0,0v9h12V0H0z M6,5.7L1.6,1h8.8L6,5.7z M4.1,5.1L1,7.5V1.8L4.1,5.1z M4.8,5.9L6,7.2l1.2-1.3l2.9,2.2H1.9
	L4.8,5.9z M7.9,5.1L11,1.8v5.8L7.9,5.1z"/>
</svg>
